LANGKAH AWAL PENGGUNAAN :
1. Tanam "tbl_users.sql" di db utama
2. Setting application\config\database.php
hostname = isi host komputer yang menjalankan database
username = isi user database
password = isi password database
database = isi nama database yang dituju
3. Login ke aplikasi :
email : serius@amat.gan
pass : 123456
4. Setelah login langsung ke menu SYSTEM USER, klik "Create Schema"
5. Aplikasi siap digunakan

=====================================================================

JIKA ADA UPDATE TABEL USER :
Jika di tabel user ada penambahan kolom klik "Update Schema" di menu SYSTEM USER.

=====================================================================

https://www.youtube.com/playlist?list=PLERwrLEmDEQJvvH8qnUjq0CpQkOmt99ox

======================================================================